module gitlab.com/soundsnick/iitu-bot

go 1.15

require (
	github.com/cornelk/hashmap v1.0.1
	github.com/dchest/siphash v1.2.2 // indirect
	github.com/go-telegram-bot-api/telegram-bot-api v4.6.4+incompatible
	github.com/jinzhu/copier v0.2.5
	github.com/technoweenie/multipartstreamer v1.0.1 // indirect
)
